[
    {
        "userId": 7,
        "cost": 15000,
        "sale": 1500,
        "time": "Jul 8, 2019 10:53 AM",
        "flag": "current"
    },
    {
        "userId": 7,
        "cost": 9999,
        "sale": 999.9000000000001,
        "time": "Jul 8, 2019 10:53 AM",
        "flag": "current"
    },
    {
        "userId": 22,
        "cost": 50,
        "sale": 5,
        "time": "Jul 8, 2019 11:07 AM",
        "flag": "current"
    },
    {
        "userId": 22,
        "cost": 9999,
        "sale": 999.9000000000001,
        "time": "Jul 8, 2019 11:10 AM",
        "flag": "current"
    },
    {
        "userId": 22,
        "cost": 9999,
        "sale": 999.9000000000001,
        "time": "Jul 8, 2019 11:10 AM",
        "flag": "current"
    }
]