[
  {
    "id": 1,
    "username": "11",
    "password": "$2b$10$axM364MPu.eZ.LBV4naEx.nfOIMelhyj4aUPM1GPrx6bwTiMWiNqe"
  },
  {
    "id": 2,
    "username": "asdasdasdasd",
    "password": "$2b$10$n1aXpChTziLx03ZB8Nh5x./4vgMcR9yCDTD1fjwrAgZBqQfsgEy66"
  },
  {
    "id": 3,
    "username": "asdasdasdasdasddasd",
    "password": "$2b$10$sWINd5pBDShXZP3MAXFIN.x2BfNtwPHE5B1SP6IRb/mHmqkJq8em6"
  },
  {
    "id": 4,
    "username": "竹北市府將於是",
    "password": "$2b$10$kr.eZrLOH47EDouDL25NaeNg/ooBaHlykYFpjQWzMUtztoPgqnqfy"
  },
  {
    "id": 5,
    "username": "123456",
    "password": "$2b$10$4aXA.gEfIOhxWDd0FAmfc.ru9gvaOTzXQu9LGPPdXLRm/k.YWWbAW"
  },
  {
    "id": 6,
    "username": "1111",
    "password": "$2b$10$/HKDbzISf5REqoOKdy4wfekWWqC58/NeNz8t/5krxOIUevaWMnRCu"
  },
  {
    "id": 7,
    "username": "1234",
    "password": "$2b$10$8hCHv2i9yFO4I6axmQA8juvi6NjvQyy7dxNARtHWI.Nbm4ZXEgR72"
  },
  {
    "id": 8,
    "username": "1233",
    "password": "$2b$10$5AVpouciJI0Q6sGyQF.fTu598PLq8OnFixmfR2BJMuKpqbUFdyzTm"
  },
  {
    "id": 9,
    "username": "123123",
    "password": "$2b$10$hqTbsCnt6NebOCZ8yeCuQupTk6wy70vYvpYidS.QMu5vp4nV3CFn2"
  },
  {
    "id": 10,
    "username": "aabc",
    "password": "$2b$10$726phlz0zyzj0VOTZfbXTuHE50eCd0/zsmWGvN1Y6qy0QyYzhuOs2"
  },
  {
    "id": 11,
    "username": "abc123",
    "password": "$2b$10$csPRLYvekmRE52PysezsyO5Zxrm9NbxBiVfDISHsACiu8iTlY/Tmi"
  },
  {
    "id": 12,
    "username": "aaa1",
    "password": "$2b$10$A7YUItBxQXjHrp/pSulzsuHL2HUBC6LiqEMJLvDS4Df2DF7NE4Nam"
  },
  {
    "id": 13,
    "username": "idushhfe",
    "password": "$2b$10$TyQTUjykMTMobZPttkD98Ov1xw5lJRRbDYyXX61zoq2MZOmoxhPx."
  },
  {
    "id": 14,
    "username": "hihi",
    "password": "$2b$10$oEcE4eVhWUPYP1TVHO.YEOrW7mO2AS.OL0DTjeZf1ZO4hLdjc8Sn2"
  },
  {
    "id": 15,
    "username": "hihihi",
    "password": "$2b$10$8/kKi6afYuOgEtHdRK0T7.7Cou4GqiT/WmBV2ENeke/il7rrTM8.y"
  },
  {
    "id": 16,
    "username": "qweqweqwe",
    "password": "$2b$10$LXkXezQgTYXjUCSnVf407.XW/Cc5dFLl8cq.soDvt2FqOw3zVC3lu"
  },
  {
    "id": 17,
    "username": "admin",
    "password": "$2b$10$Jp6jQ4lKoGsNhjA6kELMPO87BqpcMkZvv2e0f44kdCWt/BnnjngBC"
  },
  {
    "id": 18,
    "username": "cascascasc",
    "password": "$2b$10$GQzV8gJdmbc6hem.MefL2O0KZSektPA5X/YK0gsjXgfdBB5Uw4rdC"
  },
  {
    "id": 19,
    "username": "danny",
    "password": "$2b$10$b2/762HwBQ3TUP0n3a3YR.uOruxe5PhqMfQufrCbknJCJEkapYP0a"
  },
  {
    "id": 20,
    "username": "sajdyaiud",
    "password": "$2b$10$j045Bp73ChlU2VjschdGfe.dqt9p7v21z9zL0ExhuWhFzFsKkDkGK"
  },
  {
    "id": 21,
    "username": "aaaaa89",
    "password": "$2b$10$ZnT7jwA49HD7ktUO8ZNcfuBkLLDNoT0wRr0QsozU6.TwTP2clPeEa"
  },
  {
    "id": 22,
    "username": "qwerty",
    "password": "$2b$10$ijFVSyTN.e5owzBlaIpCF.l4z6Xs/LTqSkCUwkY4qiLyz.xSN0BNy"
  },
  {
    "id": 23,
    "username": "gordon",
    "password": "$2b$10$8sUfgxx6K0JYtwFgLPCx8.6hcnf8EKMeBOd9/kCZu8nbz.1S4vCr2"
  },
  {
    "id": 24,
    "username": "golden",
    "password": "$2b$10$d3XRcKelqXbCNMXwIK6TlOcVQtmP/2ecR/xiKGNcVmEg/QC9S7leq"
  },
  {
    "id": 25,
    "username": "goal",
    "password": "$2b$10$PhmDt6TnhPRCVyCrlABHY./AdwGVoGpenUNdYLQ.lM7rZq1ngvXNi"
  }
]
